<?xml version="1.0" encoding="UTF-8" standalone="no"?>
<!-- Created with Inkscape (http://www.inkscape.org/) -->

<svg
   width="841mm"
   height="594mm"
   viewBox="0 0 840.99994 594.00001"
   version="1.1"
   id="svg1"
   xml:space="preserve"
   inkscape:version="1.3 (0e150ed6c4, 2023-07-21)"
   sodipodi:docname="confbanner.svg"
   inkscape:export-filename="confbanner.png"
   inkscape:export-xdpi="96"
   inkscape:export-ydpi="96"
   xmlns:inkscape="http://www.inkscape.org/namespaces/inkscape"
   xmlns:sodipodi="http://sodipodi.sourceforge.net/DTD/sodipodi-0.dtd"
   xmlns:xlink="http://www.w3.org/1999/xlink"
   xmlns="http://www.w3.org/2000/svg"
   xmlns:svg="http://www.w3.org/2000/svg"><sodipodi:namedview
     id="namedview1"
     pagecolor="#ffffff"
     bordercolor="#000000"
     borderopacity="0.25"
     inkscape:showpageshadow="2"
     inkscape:pageopacity="0.0"
     inkscape:pagecheckerboard="0"
     inkscape:deskcolor="#d1d1d1"
     inkscape:document-units="mm"
     inkscape:zoom="0.24399837"
     inkscape:cx="1807.3891"
     inkscape:cy="1135.2535"
     inkscape:window-width="1920"
     inkscape:window-height="1008"
     inkscape:window-x="0"
     inkscape:window-y="0"
     inkscape:window-maximized="1"
     inkscape:current-layer="layer1" /><defs
     id="defs1"><pattern
       inkscape:collect="always"
       xlink:href="#invert grid"
       preserveAspectRatio="xMidYMid"
       id="pattern90"
       patternTransform="matrix(1.059725,0,0,1.059725,-25.11436,-17.738324)" /><pattern
       patternUnits="userSpaceOnUse"
       width="12"
       height="12"
       preserveAspectRatio="xMidYMid"
       id="invert grid"
       x="0"
       y="0"
       style="fill:#000000"
       inkscape:label="Inverted grid"
       inkscape:collect="always"
       inkscape:isstock="true"><rect
         style="stroke:none;paint-order:markers fill stroke"
         id="rect2-0"
         width="10"
         height="10"
         x="0"
         y="0" /></pattern><clipPath
       clipPathUnits="userSpaceOnUse"
       id="clipPath88"><rect
         style="fill:none;stroke:#000000;stroke-linecap:butt;stroke-linejoin:bevel;paint-order:stroke markers fill;stop-color:#000000"
         id="rect88"
         width="45.034248"
         height="38.955639"
         x="262.48285"
         y="121.00073" /></clipPath><clipPath
       clipPathUnits="userSpaceOnUse"
       id="clipPath15"><rect
         style="fill:none;stroke:#000000;stroke-linecap:butt;stroke-linejoin:bevel;paint-order:stroke markers fill;stop-color:#000000"
         id="rect15-7"
         width="45.034248"
         height="38.955639"
         x="262.48285"
         y="121.00073" /></clipPath><clipPath
       clipPathUnits="userSpaceOnUse"
       id="clipPath24"><rect
         style="fill:none;stroke:#000000;stroke-width:0.999999;stroke-linecap:butt;stroke-linejoin:bevel;paint-order:stroke markers fill;stop-color:#000000"
         id="rect24"
         width="44.999748"
         height="77.937294"
         x="251.53429"
         y="222.73541" /></clipPath><pattern
       inkscape:collect="always"
       xlink:href="#pattern62"
       preserveAspectRatio="xMidYMid"
       id="pattern63"
       patternTransform="matrix(0.5,0,0,0.5,1,1)" /><pattern
       patternUnits="userSpaceOnUse"
       width="100"
       height="87"
       preserveAspectRatio="xMidYMid"
       patternTransform="translate(1,1) scale(0.5,0.5)"
       style="fill:#000000"
       id="pattern62"
       inkscape:label="Hexagons packing grid"
       inkscape:collect="always"
       inkscape:isstock="true"><path
         id="path61"
         style="stroke:none"
         d="M 23.246093,0 0,13.382812 V 44.689453 L 0.0839844,44.640625 24.033203,58.505859 24.001953,86.332031 22.841796,87 h 4.478516 L 26.068359,86.275391 26.099609,58.449219 50.083984,44.640625 74.033203,58.505859 74.001953,86.332031 72.841796,87 h 4.478516 L 76.068359,86.275391 76.099609,58.449219 100,44.689453 V 13.365234 L 76.919921,0 H 73.246093 L 50.015625,13.373047 26.919921,0 Z M 25.083984,1.25 49.033203,15.115234 49.001953,42.941406 25.017578,56.75 1.0019531,42.845703 l 0.033203,-27.75 z m 50,0 24.017576,13.904297 -0.0352,27.75 L 75.017578,56.75 51.068359,42.884766 51.099609,15.058594 Z" /></pattern><filter
       style="color-interpolation-filters:sRGB;"
       inkscape:label="Drop Shadow"
       id="filter38"
       x="-0.21084051"
       y="-0.23807302"
       width="1.4474982"
       height="1.4737413"><feFlood
         result="flood"
         in="SourceGraphic"
         flood-opacity="0.498039"
         flood-color="rgb(0,0,0)"
         id="feFlood37" /><feGaussianBlur
         result="blur"
         in="SourceGraphic"
         stdDeviation="10.000000"
         id="feGaussianBlur37" /><feOffset
         result="offset"
         in="blur"
         dx="6.000000"
         dy="-0.500000"
         id="feOffset37" /><feComposite
         result="comp1"
         operator="out"
         in="flood"
         in2="offset"
         id="feComposite37" /><feComposite
         result="fbSourceGraphic"
         operator="atop"
         in="comp1"
         in2="SourceGraphic"
         id="feComposite38" /><feColorMatrix
         result="fbSourceGraphicAlpha"
         in="fbSourceGraphic"
         values="0 0 0 -1 0 0 0 0 -1 0 0 0 0 -1 0 0 0 0 1 0"
         id="feColorMatrix38" /><feFlood
         id="feFlood38"
         result="flood"
         in="fbSourceGraphic"
         flood-opacity="0.498039"
         flood-color="rgb(0,0,0)" /><feGaussianBlur
         id="feGaussianBlur38"
         result="blur"
         in="fbSourceGraphic"
         stdDeviation="10.000000" /><feOffset
         id="feOffset38"
         result="offset"
         in="blur"
         dx="6.000000"
         dy="-0.500000" /><feComposite
         id="feComposite39"
         result="comp1"
         operator="out"
         in="flood"
         in2="offset" /><feComposite
         id="feComposite40"
         result="comp2"
         operator="atop"
         in="comp1"
         in2="fbSourceGraphic" /></filter></defs><g
     inkscape:label="Layer 1"
     inkscape:groupmode="layer"
     id="layer1"><rect
       style="fill:#ffffff;stroke:url(#pattern63);stroke-width:0.436759;stroke-linejoin:bevel;stroke-dasharray:10.4822, 0.436759;paint-order:markers stroke fill"
       id="rect4"
       width="840.56329"
       height="593.56323"
       x="0.21835327"
       y="0.21838379" /><image
       width="129.41809"
       height="129.41809"
       preserveAspectRatio="none"
       xlink:href="data:image/png;base64,iVBORw0KGgoAAAANSUhEUgAAAJAAAACQCAYAAADnRuK4AAAACXBIWXMAAA7DAAAOwwHHb6hkAAAA&#10;GXRFWHRTb2Z0d2FyZQB3d3cuaW5rc2NhcGUub3Jnm+48GgAACOpJREFUeJzt3VlIFW0YB/BHj34d&#10;M7dDHdGIcAnCLFwu2u6KsuXOkIK6M7QNKiiUIvXGMIJA6qIFDPIiCukiBQmkhSjPRZop7SlYpBHi&#10;cTnuy3wXkTTOqHPmmXcW/f/gXPg6y6Pn77yv75yZCSEiiQB0CrW6AHA2BAhYECBgQYCABQECFgQI&#10;WBAgYEGAgAUBAhYECFgQIGBBgIAFAQIWBAhYECBgQYCABQECFgQIWBAgYEGAgAUBApYwURvOzMyk&#10;Y8eOidq8ULW1tVRXVydrW7lyJZWXl1tUkbpr167R58+frS6DJBGv3NxcyakqKioUP096errVZSns&#10;379fyHsXzEtYFxYSEiJq08JFRUUp2iIjIy2oZH5qdZpNWIBCQ507vFILix3erNlWrFhhdQnixkBq&#10;R6Dp6Wnq7+8XtUtdoqKiKCxM/mvweDwUFxcna4uPj1ddv7+/n6anp4XV99fseoiIVq1apWgfGRmh&#10;0dFR4fX8S0jfePDgQUWf3dXVZXmfPfvV0NDAGoesXr3alDrHxsY01VNUVLQ4xkBO7sKCMTg4aHUJ&#10;lsIgmkGSJAoEAlaXYSlTx0DB8Hq9pgwSIyIidK8bCASCGv+43W7F/lwuF0VHR898PTAwQD09Pbpr&#10;8ng8lJycLGvz+/3k9/t1b3MhQvrGI0eOsMZA9+/fZ41NjNbY2Cht2bJFyszMlJKTk6XExEQpNjZW&#10;tfbq6mppampK136qqqpUt5mVlSVlZ2fLXgMDA5q2WVZWJmwMJOwItNjGQD09PeTz+TQt6/F4dP/8&#10;c803NTc3K9qmpqZ07cNIi+tdton//vtP97p2nG+aD/4LE4ATIDtMDgbDtoNoJwsPD9e97oYNG+jW&#10;rVszXw8NDdH4+DgREU1OTsqmDdxut/4iDYIACbBs2TLd63o8HiooKDCwGrHQhQnA6cKcBhOJAiyl&#10;ANm2C/v9+zd1dHQYVM2fccmaNWt0r798+XLFBB0RUWdnp+Lf6e7ubsUJWq6kpCTb/lEKmWAqLCxU&#10;TGhZeTI1JSVF18TeQhITE02pX+vJVDUiJxLRhQELBtHAgiMQsNh2EH358mXavXu3QdXw5mbmU19f&#10;TxMTE4Ztr66ujsrKyhTtW7duVfxOnz17ZvmpD9sGKCkpibKzsw2qRpxNmzYZur22tjbV9iV3MhVj&#10;oKUBYyBgsW0XZjft7e1UU1OjadmCggLVqygWIwRIo48fP1JxcbGmZXNzc5dMgNCFAQsG0cAirAsz&#10;y9DQEH369ImI1K/e/Cs2NnbOo2JkZOSCZ9BjYmJUpxVaW1sV80Dv37+ngYGBhUpX1dnZqdqelZWl&#10;qN/lcunah9GEnGQrKipSnNQTcVVGY2Oj4bWXlJRoPlGJk6mCOLkLW+pXmwbDue+yQHq7n6UIRyAV&#10;OAJpZ+o8kNfrpfb2dk3re71eo0vSrK6ujlJSUmRtO3bsoDt37iiWff36tSnnpDhXeohkaoBcLpfq&#10;x0LtZnh4WPFx2rS0NNVl165da0ZJtoUuDFgwEw0swrqwhoYGGhkZkbVFRUXRxYsXRe1SqLnOhV24&#10;cEF2exar1dfX04sXL2Rtr169ErpPUybCiEhKSEjQPRk2FxETicG8fv78afjPxLFobnEHSwMCBCym&#10;nkydmJigpqYmQ7f590SqVVpbW6m7u9vSGv7169cvU/cXQn/6MgBd0IUBCwIELAgQsCBAwIIAAQsC&#10;BCwIELAgQMCCAAELAgQsCBCwCDuZWlpaqnqnLY78/HyqqqqSteXl5VFRUdG86813VepCtFy1OpeY&#10;mJiZj/ZmZGTQu3fvZN8/efIk3bhxQ9e251JcXExXrlwxdJvzcfylzcnJyY64k9li5fguzOp7BC51&#10;CBCwmNqF+f1+Kiws1LTsmTNnaNu2bbK248eP0549e2Rtat3X9+/f6dy5c5r2U1JSQunp6Qsu19zc&#10;TBUVFZq2WVlZSQkJCbK2q1evUl9fn6wtNTVVsW53dzfdu3eP+vr6SJL+fFRrdHR05gIFSZJmtnP3&#10;7l3FEw4PHz6s+J3U1NTQw4cPNdWuh5APW5eWlio+8G3WM1NbW1s170frc+Nra2s1b/PLly+6a3/+&#10;/Lnm/fj9fk3bdOTdOUAfp93YAQGyGacFyPH/xttRfX09tbS0yNp27dpFsbGxsrZv377R27dvZW0v&#10;X74UXp+RECABTp8+rWhraWlRBOjJkyd06tQps8oSAl0YsCBAwIIAAQvGQCbJyMiwugQhcAQCFgQI&#10;WBAgYLHtGKiyspIePXqka93+/n6DqwmO2snU8+fPKx5jkJOTQ/n5+bK2p0+f0s2bN4XXaBTbBsjn&#10;85HP57O6DF327t1L69atk7WVl5crApSamkp5eXmytkAg4KgAoQuzGbs8QEUrBMhmnBYg23ZhO3fu&#10;VNwtXqve3l7Nj6c0y4EDB2jz5s2ytu3btyuWQ4AMcvToUTp06JCuddva2mwXoEuXLmlazmkBQhdm&#10;MwgQsCBAwOK0Z4w4q9olICzMtsNSVQiQzeAIBCwYAwELAgQsCBCwIEDAgkE0sDjtCGTqpENoaCjF&#10;xcVpWlbvXcGI/rwJWvej9XHa4eHhmrfJCUF0dLTs7hpDQ0M0Pj5ORESTk5OyZ9rb4bm0pgYoPj6e&#10;ent7he8nLS3N8P3k5OSYUvv69evpzZs3wvdjFHRhwIIAAQsCBCzCxkDV1dWK55V7PB568OCBofv5&#10;+vUrnThxQtaWlJREt2/fNnQ/Ijx+/JiuX78ua9u3bx+dPXvWooqCJyxAHR0d1NHRIWubfamLEbq6&#10;uqihoUHWtnHjRsP3I8KPHz8UtXu9Xouq0cfxXdi//9YuBlZf0xYsxwfIabeEW0ggELC6hKCYOg80&#10;PDw8MzaZnp6e969tcHCQJicnVb83NjZGw8PDRKT+3Pje3l5HjIFmjxGJiD58+DBzK+SwsLB574Md&#10;HR0956Sl2+2miIgIIiJqamoyoFp1eG48sDi+CwNrIUDAggABCwIELAgQsCBAwIIAAQsCBCwIELAg&#10;QMCCAAELAgQsCBCwIEDAggABCwIELAgQsCBAwIIAAQsCBCwIELD8D4H5SzzQzrTYAAAAAElFTkSu&#10;QmCC&#10;"
       id="image1"
       x="361.3606"
       y="98.376427" /><text
       xml:space="preserve"
       style="font-style:normal;font-variant:normal;font-weight:normal;font-stretch:normal;font-size:31.8585px;line-height:38.6809px;font-family:'DejaVu Sans';-inkscape-font-specification:'DejaVu Sans, Normal';font-variant-ligatures:normal;font-variant-caps:normal;font-variant-numeric:normal;font-variant-east-asian:normal;text-align:justify;letter-spacing:0px;word-spacing:0px;fill:#000000;stroke:#ffffff;stroke-width:0.275714;stroke-linejoin:bevel;stroke-dasharray:6.61718, 0.275714;paint-order:markers stroke fill"
       x="107.86343"
       y="295.80457"
       id="text1"><tspan
         sodipodi:role="line"
         style="font-style:normal;font-variant:normal;font-weight:normal;font-stretch:normal;font-size:31.8585px;line-height:38.6809px;font-family:Bungee;-inkscape-font-specification:'Bungee, Normal';font-variant-ligatures:normal;font-variant-caps:normal;font-variant-numeric:normal;font-variant-east-asian:normal;letter-spacing:0px;fill:#000000;stroke-width:0.275714"
         x="107.86343"
         y="295.80457"
         id="tspan2">FREE SOFTWARE HARDWARE MOVEMENT</tspan></text><g
       id="g6"
       transform="matrix(0.82951798,0,0,0.82951798,42.503951,109.07822)"><text
         xml:space="preserve"
         style="font-style:normal;font-variant:normal;font-weight:normal;font-stretch:normal;font-size:40.4014px;line-height:49.0531px;font-family:'DejaVu Sans';-inkscape-font-specification:'DejaVu Sans, Normal';font-variant-ligatures:normal;font-variant-caps:normal;font-variant-numeric:normal;font-variant-east-asian:normal;text-align:justify;letter-spacing:0px;word-spacing:0px;fill:#000000;stroke:#ffffff;stroke-width:0.0888363;stroke-linejoin:bevel;stroke-dasharray:2.13208, 0.0888363;paint-order:markers stroke fill"
         x="107.9548"
         y="381.0257"
         id="text3"><tspan
           sodipodi:role="line"
           id="tspan3"
           style="font-style:normal;font-variant:normal;font-weight:normal;font-stretch:normal;font-size:40.4014px;font-family:Bungee;-inkscape-font-specification:'Bungee, Normal';font-variant-ligatures:normal;font-variant-caps:normal;font-variant-numeric:normal;font-variant-east-asian:normal;stroke-width:0.0888363"
           x="107.9548"
           y="381.0257">2<tspan
   style="font-size:65%;baseline-shift:super"
   id="tspan6">nd </tspan>ORGANIZATION CONFERENCE </tspan><tspan
           sodipodi:role="line"
           style="stroke-width:0.0888363"
           x="107.9548"
           y="431.11975"
           id="tspan4" /></text><text
         xml:space="preserve"
         style="font-style:normal;font-variant:normal;font-weight:normal;font-stretch:normal;font-size:40.4014px;line-height:49.0531px;font-family:Bungee;-inkscape-font-specification:'Bungee, Normal';font-variant-ligatures:normal;font-variant-caps:normal;font-variant-numeric:normal;font-variant-east-asian:normal;text-align:justify;letter-spacing:0px;word-spacing:0px;fill:#000000;stroke:#ffffff;stroke-width:0.115;stroke-linejoin:bevel;stroke-dasharray:2.76, 0.115;paint-order:markers stroke fill"
         x="367.17017"
         y="446.7139"
         id="text5"><tspan
           sodipodi:role="line"
           id="tspan5"
           style="font-style:normal;font-variant:normal;font-weight:normal;font-stretch:normal;font-size:40.4014px;line-height:49.0531px;font-family:Bungee;-inkscape-font-specification:'Bungee, Normal';font-variant-ligatures:normal;font-variant-caps:normal;font-variant-numeric:normal;font-variant-east-asian:normal;fill:#000000;stroke-width:0.115"
           x="367.17017"
           y="446.7139">2023</tspan></text></g><rect
       style="fill:#ffffff;stroke:#ffffff;stroke-width:0.436759;stroke-linejoin:bevel;stroke-dasharray:10.4822, 0.436759;paint-order:markers stroke fill"
       id="rect33"
       width="840.56329"
       height="593.56323"
       x="-294.79208"
       y="-628.69623" /><text
       xml:space="preserve"
       style="font-style:normal;font-variant:normal;font-weight:bold;font-stretch:semi-condensed;font-size:66.5885px;line-height:80.848px;font-family:'DejaVu Sans';-inkscape-font-specification:'DejaVu Sans, Bold Semi-Condensed';font-variant-ligatures:normal;font-variant-caps:normal;font-variant-numeric:normal;font-variant-east-asian:normal;text-align:justify;letter-spacing:0px;word-spacing:0px;fill:#000000;stroke:#ffffff;stroke-width:0.146417;stroke-linejoin:bevel;stroke-dasharray:3.51404, 0.146417;paint-order:markers stroke fill"
       x="-124.91428"
       y="-198.06204"
       id="text33"><tspan
         sodipodi:role="line"
         style="font-style:normal;font-variant:normal;font-weight:bold;font-stretch:semi-condensed;font-size:66.5885px;font-family:'DejaVu Sans';-inkscape-font-specification:'DejaVu Sans, Bold Semi-Condensed';font-variant-ligatures:normal;font-variant-caps:normal;font-variant-numeric:normal;font-variant-east-asian:normal;stroke-width:0.146417"
         x="-124.91428"
         y="-198.06204"
         id="tspan33">ORGANIZATIONAL</tspan></text><text
       xml:space="preserve"
       style="font-style:normal;font-variant:normal;font-weight:normal;font-stretch:normal;font-size:33.5137px;line-height:40.6904px;font-family:'DejaVu Sans';-inkscape-font-specification:'DejaVu Sans, Normal';font-variant-ligatures:normal;font-variant-caps:normal;font-variant-numeric:normal;font-variant-east-asian:normal;text-align:justify;letter-spacing:0px;word-spacing:0px;fill:#000000;fill-opacity:1;stroke:#ffffff;stroke-width:0.0953946;stroke-linejoin:bevel;stroke-dasharray:2.28947, 0.0953946;paint-order:markers stroke fill"
       x="-31.532076"
       y="-148.73203"
       id="text34"><tspan
         sodipodi:role="line"
         style="font-style:normal;font-variant:normal;font-weight:normal;font-stretch:normal;font-size:33.5137px;line-height:40.6904px;font-family:'DejaVu Sans';-inkscape-font-specification:'DejaVu Sans, Normal';font-variant-ligatures:normal;font-variant-caps:normal;font-variant-numeric:normal;font-variant-east-asian:normal;fill:#000000;fill-opacity:1;stroke-width:0.0953946"
         x="-31.532076"
         y="-148.73203"
         id="tspan34">CONFERENCE 2023</tspan></text><path
       d="m -183.9294,-208.23501 h 21.4115 v 10.25287 h -35.3597 v -10.25287 l 17.7523,-17.42625 q 2.3911,-2.39113 3.5142,-4.67357 1.1594,-2.28244 1.1594,-4.74603 0,-3.80406 -2.3187,-6.12273 -2.2824,-2.31867 -6.0865,-2.31867 -2.9346,0 -6.4488,1.41293 -3.478,1.37671 -7.4632,4.13013 v -11.88318 q 4.2388,-1.55785 8.3689,-2.3549 4.1664,-0.83327 8.1516,-0.83327 8.7312,0 13.5497,4.27504 4.8547,4.27506 4.8547,11.91942 0,4.41996 -2.065,8.26026 -2.0289,3.80407 -8.6226,10.21664 z"
       id="path34"
       style="font-weight:bold;font-stretch:semi-condensed;font-size:132.535px;line-height:193.988px;font-family:'DejaVu Sans';-inkscape-font-specification:'DejaVu Sans, Bold Semi-Condensed';text-align:justify;letter-spacing:0px;word-spacing:0px;opacity:0.797596;stroke:#ffffff;stroke-width:0.254604;stroke-linejoin:bevel;stroke-dasharray:6.11046, 0.254604;paint-order:markers stroke fill"
       aria-label="2" /><text
       xml:space="preserve"
       style="font-style:normal;font-variant:normal;font-weight:bold;font-stretch:semi-condensed;font-size:33.5137px;line-height:49.0532px;font-family:'DejaVu Sans';-inkscape-font-specification:'DejaVu Sans, Bold Semi-Condensed';font-variant-ligatures:normal;font-variant-caps:normal;font-variant-numeric:normal;font-variant-east-asian:normal;text-align:justify;letter-spacing:0px;word-spacing:0px;opacity:0.797596;fill:#000000;fill-opacity:1;stroke:#ffffff;stroke-width:0.115;stroke-linejoin:bevel;stroke-dasharray:2.76, 0.115;paint-order:markers stroke fill"
       x="-160.34042"
       y="-241.42017"
       id="text35"><tspan
         sodipodi:role="line"
         id="tspan35"
         style="stroke-width:0.115"
         x="-160.34042"
         y="-241.42017">ND</tspan></text><g
       id="g37"
       transform="translate(-273.6756,-609.46199)"><image
         width="146.00734"
         height="146.00734"
         preserveAspectRatio="none"
         xlink:href="data:image/png;base64,iVBORw0KGgoAAAANSUhEUgAAAJAAAACQCAYAAADnRuK4AAAACXBIWXMAAA7DAAAOwwHHb6hkAAAA&#10;GXRFWHRTb2Z0d2FyZQB3d3cuaW5rc2NhcGUub3Jnm+48GgAACOpJREFUeJzt3VlIFW0YB/BHj34d&#10;M7dDHdGIcAnCLFwu2u6KsuXOkIK6M7QNKiiUIvXGMIJA6qIFDPIiCukiBQmkhSjPRZop7SlYpBHi&#10;cTnuy3wXkTTOqHPmmXcW/f/gXPg6y6Pn77yv75yZCSEiiQB0CrW6AHA2BAhYECBgQYCABQECFgQI&#10;WBAgYEGAgAUBAhYECFgQIGBBgIAFAQIWBAhYECBgQYCABQECFgQIWBAgYEGAgAUBApYwURvOzMyk&#10;Y8eOidq8ULW1tVRXVydrW7lyJZWXl1tUkbpr167R58+frS6DJBGv3NxcyakqKioUP096errVZSns&#10;379fyHsXzEtYFxYSEiJq08JFRUUp2iIjIy2oZH5qdZpNWIBCQ507vFILix3erNlWrFhhdQnixkBq&#10;R6Dp6Wnq7+8XtUtdoqKiKCxM/mvweDwUFxcna4uPj1ddv7+/n6anp4XV99fseoiIVq1apWgfGRmh&#10;0dFR4fX8S0jfePDgQUWf3dXVZXmfPfvV0NDAGoesXr3alDrHxsY01VNUVLQ4xkBO7sKCMTg4aHUJ&#10;lsIgmkGSJAoEAlaXYSlTx0DB8Hq9pgwSIyIidK8bCASCGv+43W7F/lwuF0VHR898PTAwQD09Pbpr&#10;8ng8lJycLGvz+/3k9/t1b3MhQvrGI0eOsMZA9+/fZ41NjNbY2Cht2bJFyszMlJKTk6XExEQpNjZW&#10;tfbq6mppampK136qqqpUt5mVlSVlZ2fLXgMDA5q2WVZWJmwMJOwItNjGQD09PeTz+TQt6/F4dP/8&#10;c803NTc3K9qmpqZ07cNIi+tdton//vtP97p2nG+aD/4LE4ATIDtMDgbDtoNoJwsPD9e97oYNG+jW&#10;rVszXw8NDdH4+DgREU1OTsqmDdxut/4iDYIACbBs2TLd63o8HiooKDCwGrHQhQnA6cKcBhOJAiyl&#10;ANm2C/v9+zd1dHQYVM2fccmaNWt0r798+XLFBB0RUWdnp+Lf6e7ubsUJWq6kpCTb/lEKmWAqLCxU&#10;TGhZeTI1JSVF18TeQhITE02pX+vJVDUiJxLRhQELBtHAgiMQsNh2EH358mXavXu3QdXw5mbmU19f&#10;TxMTE4Ztr66ujsrKyhTtW7duVfxOnz17ZvmpD9sGKCkpibKzsw2qRpxNmzYZur22tjbV9iV3MhVj&#10;oKUBYyBgsW0XZjft7e1UU1OjadmCggLVqygWIwRIo48fP1JxcbGmZXNzc5dMgNCFAQsG0cAirAsz&#10;y9DQEH369ImI1K/e/Cs2NnbOo2JkZOSCZ9BjYmJUpxVaW1sV80Dv37+ngYGBhUpX1dnZqdqelZWl&#10;qN/lcunah9GEnGQrKipSnNQTcVVGY2Oj4bWXlJRoPlGJk6mCOLkLW+pXmwbDue+yQHq7n6UIRyAV&#10;OAJpZ+o8kNfrpfb2dk3re71eo0vSrK6ujlJSUmRtO3bsoDt37iiWff36tSnnpDhXeohkaoBcLpfq&#10;x0LtZnh4WPFx2rS0NNVl165da0ZJtoUuDFgwEw0swrqwhoYGGhkZkbVFRUXRxYsXRe1SqLnOhV24&#10;cEF2exar1dfX04sXL2Rtr169ErpPUybCiEhKSEjQPRk2FxETicG8fv78afjPxLFobnEHSwMCBCym&#10;nkydmJigpqYmQ7f590SqVVpbW6m7u9vSGv7169cvU/cXQn/6MgBd0IUBCwIELAgQsCBAwIIAAQsC&#10;BCwIELAgQMCCAAELAgQsCBCwCDuZWlpaqnqnLY78/HyqqqqSteXl5VFRUdG86813VepCtFy1OpeY&#10;mJiZj/ZmZGTQu3fvZN8/efIk3bhxQ9e251JcXExXrlwxdJvzcfylzcnJyY64k9li5fguzOp7BC51&#10;CBCwmNqF+f1+Kiws1LTsmTNnaNu2bbK248eP0549e2Rtat3X9+/f6dy5c5r2U1JSQunp6Qsu19zc&#10;TBUVFZq2WVlZSQkJCbK2q1evUl9fn6wtNTVVsW53dzfdu3eP+vr6SJL+fFRrdHR05gIFSZJmtnP3&#10;7l3FEw4PHz6s+J3U1NTQw4cPNdWuh5APW5eWlio+8G3WM1NbW1s170frc+Nra2s1b/PLly+6a3/+&#10;/Lnm/fj9fk3bdOTdOUAfp93YAQGyGacFyPH/xttRfX09tbS0yNp27dpFsbGxsrZv377R27dvZW0v&#10;X74UXp+RECABTp8+rWhraWlRBOjJkyd06tQps8oSAl0YsCBAwIIAAQvGQCbJyMiwugQhcAQCFgQI&#10;WBAgYLHtGKiyspIePXqka93+/n6DqwmO2snU8+fPKx5jkJOTQ/n5+bK2p0+f0s2bN4XXaBTbBsjn&#10;85HP57O6DF327t1L69atk7WVl5crApSamkp5eXmytkAg4KgAoQuzGbs8QEUrBMhmnBYg23ZhO3fu&#10;VNwtXqve3l7Nj6c0y4EDB2jz5s2ytu3btyuWQ4AMcvToUTp06JCuddva2mwXoEuXLmlazmkBQhdm&#10;MwgQsCBAwOK0Z4w4q9olICzMtsNSVQiQzeAIBCwYAwELAgQsCBCwIEDAgkE0sDjtCGTqpENoaCjF&#10;xcVpWlbvXcGI/rwJWvej9XHa4eHhmrfJCUF0dLTs7hpDQ0M0Pj5ORESTk5OyZ9rb4bm0pgYoPj6e&#10;ent7he8nLS3N8P3k5OSYUvv69evpzZs3wvdjFHRhwIIAAQsCBCzCxkDV1dWK55V7PB568OCBofv5&#10;+vUrnThxQtaWlJREt2/fNnQ/Ijx+/JiuX78ua9u3bx+dPXvWooqCJyxAHR0d1NHRIWubfamLEbq6&#10;uqihoUHWtnHjRsP3I8KPHz8UtXu9Xouq0cfxXdi//9YuBlZf0xYsxwfIabeEW0ggELC6hKCYOg80&#10;PDw8MzaZnp6e969tcHCQJicnVb83NjZGw8PDRKT+3Pje3l5HjIFmjxGJiD58+DBzK+SwsLB574Md&#10;HR0956Sl2+2miIgIIiJqamoyoFp1eG48sDi+CwNrIUDAggABCwIELAgQsCBAwIIAAQsCBCwIELAg&#10;QMCCAAELAgQsCBCwIEDAggABCwIELAgQsCBAwIIAAQsCBCwIELD8D4H5SzzQzrTYAAAAAElFTkSu&#10;QmCC&#10;"
         id="image35"
         x="60.354435"
         y="99.032669" /><text
         xml:space="preserve"
         style="font-style:normal;font-variant:normal;font-weight:normal;font-stretch:normal;font-size:39.14px;line-height:47.5218px;font-family:'DejaVu Sans';-inkscape-font-specification:'DejaVu Sans, Normal';font-variant-ligatures:normal;font-variant-caps:normal;font-variant-numeric:normal;font-variant-east-asian:normal;text-align:justify;letter-spacing:0px;word-spacing:0px;fill:#000000;stroke:#ffffff;stroke-width:0.338731;stroke-linejoin:bevel;stroke-dasharray:8.12953, 0.338731;paint-order:markers stroke fill"
         x="267.53934"
         y="160.40425"
         id="text37"><tspan
           sodipodi:role="line"
           style="font-style:normal;font-variant:normal;font-weight:normal;font-stretch:normal;font-size:39.14px;line-height:47.5218px;font-family:Bungee;-inkscape-font-specification:'Bungee, Normal';font-variant-ligatures:normal;font-variant-caps:normal;font-variant-numeric:normal;font-variant-east-asian:normal;letter-spacing:0px;fill:#000000;stroke-width:0.338731"
           x="267.53934"
           y="160.40425"
           id="tspan36">FREE SOFTWARE </tspan><tspan
           sodipodi:role="line"
           style="font-style:normal;font-variant:normal;font-weight:normal;font-stretch:normal;font-size:39.14px;line-height:47.5218px;font-family:Bungee;-inkscape-font-specification:'Bungee, Normal';font-variant-ligatures:normal;font-variant-caps:normal;font-variant-numeric:normal;font-variant-east-asian:normal;letter-spacing:0px;fill:#000000;stroke-width:0.338731"
           x="267.53934"
           y="211.84923"
           id="tspan37">HARDWARE MOVEMENT</tspan></text><rect
         style="opacity:0.797596;fill:#000000;stroke:#ffffff;stroke-width:0.115;stroke-linejoin:bevel;stroke-dasharray:2.76, 0.115;paint-order:markers stroke fill"
         id="rect37"
         width="9.002779"
         height="137.65924"
         x="233.71481"
         y="103.20672" /></g><rect
       style="opacity:0.80493898;fill:none;fill-opacity:1;stroke:url(#pattern90);stroke-width:105.972;stroke-linejoin:bevel;stroke-dasharray:none;stroke-dashoffset:0;stroke-opacity:1;paint-order:markers stroke fill"
       id="rect80"
       width="890.76593"
       height="629.01379"
       x="-24.882965"
       y="-17.506897" /><text
       xml:space="preserve"
       style="font-style:normal;font-variant:normal;font-weight:bold;font-stretch:semi-condensed;font-size:33.5137px;line-height:49.0532px;font-family:'DejaVu Sans';-inkscape-font-specification:'DejaVu Sans, Bold Semi-Condensed';font-variant-ligatures:normal;font-variant-caps:normal;font-variant-numeric:normal;font-variant-east-asian:normal;text-align:justify;letter-spacing:0px;word-spacing:0px;opacity:1;fill:#000000;fill-opacity:1;stroke:none;stroke-width:100;stroke-linejoin:bevel;stroke-dasharray:none;stroke-dashoffset:0;stroke-opacity:1;paint-order:markers stroke fill"
       x="247.77048"
       y="538.21185"
       id="text107"><tspan
         sodipodi:role="line"
         id="tspan107"
         style="stroke-width:100;fill:#000000;stroke:none"
         x="247.77048"
         y="538.21185">amaipu maanadu</tspan></text><text
       xml:space="preserve"
       style="font-style:normal;font-variant:normal;font-weight:bold;font-stretch:semi-condensed;font-size:26.9436px;line-height:39.4367px;font-family:'DejaVu Sans';-inkscape-font-specification:'DejaVu Sans, Bold Semi-Condensed';font-variant-ligatures:normal;font-variant-caps:normal;font-variant-numeric:normal;font-variant-east-asian:normal;text-align:justify;letter-spacing:0px;word-spacing:0px;opacity:0.804939;fill:#000000;fill-opacity:1;stroke:none;stroke-width:80.3957;stroke-linejoin:bevel;stroke-dasharray:none;stroke-dashoffset:0;stroke-opacity:1;paint-order:markers stroke fill"
       x="82.496918"
       y="336.30225"
       id="text108"><tspan
         sodipodi:role="line"
         id="tspan108"
         style="stroke-width:80.3957"
         x="82.496918"
         y="336.30225">கட்டற்ற மென்பொருள் வன்பொருள் இயக்கம்</tspan></text></g></svg>
